(kicad_pcb (version 20171130) (host pcbnew 5.1.9-1.fc33)

  (general
    (thickness 1.6)
    (drawings 0)
    (tracks 0)
    (zones 0)
    (modules 1)
    (nets 94)
  )

  (page A4)
  (layers
    (0 F.Cu signal)
    (31 B.Cu signal)
    (32 B.Adhes user)
    (33 F.Adhes user)
    (34 B.Paste user)
    (35 F.Paste user)
    (36 B.SilkS user)
    (37 F.SilkS user)
    (38 B.Mask user)
    (39 F.Mask user)
    (40 Dwgs.User user)
    (41 Cmts.User user)
    (42 Eco1.User user)
    (43 Eco2.User user)
    (44 Edge.Cuts user)
    (45 Margin user)
    (46 B.CrtYd user)
    (47 F.CrtYd user)
    (48 B.Fab user)
    (49 F.Fab user)
  )

  (setup
    (last_trace_width 0.25)
    (trace_clearance 0.2)
    (zone_clearance 0.508)
    (zone_45_only no)
    (trace_min 0.2)
    (via_size 0.8)
    (via_drill 0.4)
    (via_min_size 0.4)
    (via_min_drill 0.3)
    (uvia_size 0.3)
    (uvia_drill 0.1)
    (uvias_allowed no)
    (uvia_min_size 0.2)
    (uvia_min_drill 0.1)
    (edge_width 0.05)
    (segment_width 0.2)
    (pcb_text_width 0.3)
    (pcb_text_size 1.5 1.5)
    (mod_edge_width 0.12)
    (mod_text_size 1 1)
    (mod_text_width 0.15)
    (pad_size 1.524 1.524)
    (pad_drill 0.762)
    (pad_to_mask_clearance 0)
    (aux_axis_origin 0 0)
    (visible_elements FFFFFF7F)
    (pcbplotparams
      (layerselection 0x010fc_ffffffff)
      (usegerberextensions false)
      (usegerberattributes true)
      (usegerberadvancedattributes true)
      (creategerberjobfile true)
      (excludeedgelayer true)
      (linewidth 0.100000)
      (plotframeref false)
      (viasonmask false)
      (mode 1)
      (useauxorigin false)
      (hpglpennumber 1)
      (hpglpenspeed 20)
      (hpglpendiameter 15.000000)
      (psnegative false)
      (psa4output false)
      (plotreference true)
      (plotvalue true)
      (plotinvisibletext false)
      (padsonsilk false)
      (subtractmaskfromsilk false)
      (outputformat 1)
      (mirror false)
      (drillshape 1)
      (scaleselection 1)
      (outputdirectory ""))
  )

  (net 0 "")
  (net 1 "Net-(U1-Pad99)")
  (net 2 "Net-(U1-Pad98)")
  (net 3 "Net-(U1-Pad97)")
  (net 4 "Net-(U1-Pad95)")
  (net 5 USART1_RX)
  (net 6 "Net-(U1-Pad88)")
  (net 7 "Net-(U1-Pad87)")
  (net 8 "Net-(U1-Pad86)")
  (net 9 "Net-(U1-Pad85)")
  (net 10 "Net-(U1-Pad83)")
  (net 11 "Net-(U1-Pad73)")
  (net 12 USB_FS_D+)
  (net 13 USB_FS_D-)
  (net 14 USB_FS_ID)
  (net 15 USART1_TX)
  (net 16 "Net-(U1-Pad65)")
  (net 17 "Net-(U1-Pad64)")
  (net 18 "Net-(U1-Pad63)")
  (net 19 "Net-(U1-Pad62)")
  (net 20 "Net-(U1-Pad61)")
  (net 21 "Net-(U1-Pad60)")
  (net 22 "Net-(U1-Pad59)")
  (net 23 "Net-(U1-Pad58)")
  (net 24 "Net-(U1-Pad57)")
  (net 25 "Net-(U1-Pad56)")
  (net 26 "Net-(U1-Pad55)")
  (net 27 USB_HS_D+)
  (net 28 USB_HS_D-)
  (net 29 USB_HS_ID)
  (net 30 "Net-(U1-Pad49)")
  (net 31 "Net-(U1-Pad46)")
  (net 32 "Net-(U1-Pad45)")
  (net 33 "Net-(U1-Pad44)")
  (net 34 "Net-(U1-Pad43)")
  (net 35 "Net-(U1-Pad42)")
  (net 36 "Net-(U1-Pad41)")
  (net 37 "Net-(U1-Pad40)")
  (net 38 "Net-(U1-Pad39)")
  (net 39 "Net-(U1-Pad38)")
  (net 40 "Net-(U1-Pad37)")
  (net 41 "Net-(U1-Pad36)")
  (net 42 "Net-(U1-Pad35)")
  (net 43 "Net-(U1-Pad34)")
  (net 44 "Net-(U1-Pad33)")
  (net 45 "Net-(U1-Pad22)")
  (net 46 "Net-(U1-Pad21)")
  (net 47 "Net-(U1-Pad20)")
  (net 48 "Net-(U1-Pad16)")
  (net 49 "Net-(U1-Pad15)")
  (net 50 RCC_OSC_OUT)
  (net 51 RCC_OSC_IN)
  (net 52 "Net-(U1-Pad9)")
  (net 53 "Net-(U1-Pad8)")
  (net 54 "Net-(U1-Pad7)")
  (net 55 "Net-(U1-Pad6)")
  (net 56 "Net-(U1-Pad5)")
  (net 57 "Net-(U1-Pad4)")
  (net 58 "Net-(U1-Pad3)")
  (net 59 "Net-(U1-Pad2)")
  (net 60 "Net-(U1-Pad1)")
  (net 61 VDD)
  (net 62 I2C1_SDA)
  (net 63 BOOT0)
  (net 64 I2C1_SCL)
  (net 65 CAN2_RX)
  (net 66 SYS_JTRST)
  (net 67 SYS_JTDO_SWO)
  (net 68 USART3_TX)
  (net 69 CAN1_TX)
  (net 70 CAN1_RX)
  (net 71 SPI3_MOSI)
  (net 72 SPI3_MISO)
  (net 73 SPI3_SCK)
  (net 74 SYS_JTDI)
  (net 75 SYS_JTCK-SWCLK)
  (net 76 GND)
  (net 77 SYS_JTMS-SWDIO)
  (net 78 I2C3_SCL)
  (net 79 I2C3_SDA)
  (net 80 CAN2_TX)
  (net 81 USART3_RX)
  (net 82 SPI2_SCK)
  (net 83 SPI1_MOSI)
  (net 84 SPI1_MISO)
  (net 85 SPI1_SCK)
  (net 86 SPI1_NSS)
  (net 87 USART2_RX)
  (net 88 USART2_TX)
  (net 89 ADC1_IN1)
  (net 90 ADC1_IN0)
  (net 91 SPI2_MOSI)
  (net 92 SPI2_MISO)
  (net 93 NRST)

  (net_class Default "This is the default net class."
    (clearance 0.2)
    (trace_width 0.25)
    (via_dia 0.8)
    (via_drill 0.4)
    (uvia_dia 0.3)
    (uvia_drill 0.1)
    (add_net ADC1_IN0)
    (add_net ADC1_IN1)
    (add_net BOOT0)
    (add_net CAN1_RX)
    (add_net CAN1_TX)
    (add_net CAN2_RX)
    (add_net CAN2_TX)
    (add_net GND)
    (add_net I2C1_SCL)
    (add_net I2C1_SDA)
    (add_net I2C3_SCL)
    (add_net I2C3_SDA)
    (add_net NRST)
    (add_net "Net-(U1-Pad1)")
    (add_net "Net-(U1-Pad15)")
    (add_net "Net-(U1-Pad16)")
    (add_net "Net-(U1-Pad2)")
    (add_net "Net-(U1-Pad20)")
    (add_net "Net-(U1-Pad21)")
    (add_net "Net-(U1-Pad22)")
    (add_net "Net-(U1-Pad3)")
    (add_net "Net-(U1-Pad33)")
    (add_net "Net-(U1-Pad34)")
    (add_net "Net-(U1-Pad35)")
    (add_net "Net-(U1-Pad36)")
    (add_net "Net-(U1-Pad37)")
    (add_net "Net-(U1-Pad38)")
    (add_net "Net-(U1-Pad39)")
    (add_net "Net-(U1-Pad4)")
    (add_net "Net-(U1-Pad40)")
    (add_net "Net-(U1-Pad41)")
    (add_net "Net-(U1-Pad42)")
    (add_net "Net-(U1-Pad43)")
    (add_net "Net-(U1-Pad44)")
    (add_net "Net-(U1-Pad45)")
    (add_net "Net-(U1-Pad46)")
    (add_net "Net-(U1-Pad49)")
    (add_net "Net-(U1-Pad5)")
    (add_net "Net-(U1-Pad55)")
    (add_net "Net-(U1-Pad56)")
    (add_net "Net-(U1-Pad57)")
    (add_net "Net-(U1-Pad58)")
    (add_net "Net-(U1-Pad59)")
    (add_net "Net-(U1-Pad6)")
    (add_net "Net-(U1-Pad60)")
    (add_net "Net-(U1-Pad61)")
    (add_net "Net-(U1-Pad62)")
    (add_net "Net-(U1-Pad63)")
    (add_net "Net-(U1-Pad64)")
    (add_net "Net-(U1-Pad65)")
    (add_net "Net-(U1-Pad7)")
    (add_net "Net-(U1-Pad73)")
    (add_net "Net-(U1-Pad8)")
    (add_net "Net-(U1-Pad83)")
    (add_net "Net-(U1-Pad85)")
    (add_net "Net-(U1-Pad86)")
    (add_net "Net-(U1-Pad87)")
    (add_net "Net-(U1-Pad88)")
    (add_net "Net-(U1-Pad9)")
    (add_net "Net-(U1-Pad95)")
    (add_net "Net-(U1-Pad97)")
    (add_net "Net-(U1-Pad98)")
    (add_net "Net-(U1-Pad99)")
    (add_net RCC_OSC_IN)
    (add_net RCC_OSC_OUT)
    (add_net SPI1_MISO)
    (add_net SPI1_MOSI)
    (add_net SPI1_NSS)
    (add_net SPI1_SCK)
    (add_net SPI2_MISO)
    (add_net SPI2_MOSI)
    (add_net SPI2_SCK)
    (add_net SPI3_MISO)
    (add_net SPI3_MOSI)
    (add_net SPI3_SCK)
    (add_net SYS_JTCK-SWCLK)
    (add_net SYS_JTDI)
    (add_net SYS_JTDO_SWO)
    (add_net SYS_JTMS-SWDIO)
    (add_net SYS_JTRST)
    (add_net USART1_RX)
    (add_net USART1_TX)
    (add_net USART2_RX)
    (add_net USART2_TX)
    (add_net USART3_RX)
    (add_net USART3_TX)
    (add_net USB_FS_D+)
    (add_net USB_FS_D-)
    (add_net USB_FS_ID)
    (add_net USB_HS_D+)
    (add_net USB_HS_D-)
    (add_net USB_HS_ID)
    (add_net VDD)
  )

  (module Package_QFP:LQFP-100_14x14mm_P0.5mm (layer F.Cu) (tedit 5D9F72B0) (tstamp 601FF861)
    (at 140.208 82.042)
    (descr "LQFP, 100 Pin (https://www.nxp.com/docs/en/package-information/SOT407-1.pdf), generated with kicad-footprint-generator ipc_gullwing_generator.py")
    (tags "LQFP QFP")
    (path /601FF7D1)
    (attr smd)
    (fp_text reference U1 (at 0 -9.42) (layer F.SilkS)
      (effects (font (size 1 1) (thickness 0.15)))
    )
    (fp_text value STM32F205VCTx (at 0 9.42) (layer F.Fab)
      (effects (font (size 1 1) (thickness 0.15)))
    )
    (fp_line (start 8.72 6.4) (end 8.72 0) (layer F.CrtYd) (width 0.05))
    (fp_line (start 7.25 6.4) (end 8.72 6.4) (layer F.CrtYd) (width 0.05))
    (fp_line (start 7.25 7.25) (end 7.25 6.4) (layer F.CrtYd) (width 0.05))
    (fp_line (start 6.4 7.25) (end 7.25 7.25) (layer F.CrtYd) (width 0.05))
    (fp_line (start 6.4 8.72) (end 6.4 7.25) (layer F.CrtYd) (width 0.05))
    (fp_line (start 0 8.72) (end 6.4 8.72) (layer F.CrtYd) (width 0.05))
    (fp_line (start -8.72 6.4) (end -8.72 0) (layer F.CrtYd) (width 0.05))
    (fp_line (start -7.25 6.4) (end -8.72 6.4) (layer F.CrtYd) (width 0.05))
    (fp_line (start -7.25 7.25) (end -7.25 6.4) (layer F.CrtYd) (width 0.05))
    (fp_line (start -6.4 7.25) (end -7.25 7.25) (layer F.CrtYd) (width 0.05))
    (fp_line (start -6.4 8.72) (end -6.4 7.25) (layer F.CrtYd) (width 0.05))
    (fp_line (start 0 8.72) (end -6.4 8.72) (layer F.CrtYd) (width 0.05))
    (fp_line (start 8.72 -6.4) (end 8.72 0) (layer F.CrtYd) (width 0.05))
    (fp_line (start 7.25 -6.4) (end 8.72 -6.4) (layer F.CrtYd) (width 0.05))
    (fp_line (start 7.25 -7.25) (end 7.25 -6.4) (layer F.CrtYd) (width 0.05))
    (fp_line (start 6.4 -7.25) (end 7.25 -7.25) (layer F.CrtYd) (width 0.05))
    (fp_line (start 6.4 -8.72) (end 6.4 -7.25) (layer F.CrtYd) (width 0.05))
    (fp_line (start 0 -8.72) (end 6.4 -8.72) (layer F.CrtYd) (width 0.05))
    (fp_line (start -8.72 -6.4) (end -8.72 0) (layer F.CrtYd) (width 0.05))
    (fp_line (start -7.25 -6.4) (end -8.72 -6.4) (layer F.CrtYd) (width 0.05))
    (fp_line (start -7.25 -7.25) (end -7.25 -6.4) (layer F.CrtYd) (width 0.05))
    (fp_line (start -6.4 -7.25) (end -7.25 -7.25) (layer F.CrtYd) (width 0.05))
    (fp_line (start -6.4 -8.72) (end -6.4 -7.25) (layer F.CrtYd) (width 0.05))
    (fp_line (start 0 -8.72) (end -6.4 -8.72) (layer F.CrtYd) (width 0.05))
    (fp_line (start -7 -6) (end -6 -7) (layer F.Fab) (width 0.1))
    (fp_line (start -7 7) (end -7 -6) (layer F.Fab) (width 0.1))
    (fp_line (start 7 7) (end -7 7) (layer F.Fab) (width 0.1))
    (fp_line (start 7 -7) (end 7 7) (layer F.Fab) (width 0.1))
    (fp_line (start -6 -7) (end 7 -7) (layer F.Fab) (width 0.1))
    (fp_line (start -7.11 -6.41) (end -8.475 -6.41) (layer F.SilkS) (width 0.12))
    (fp_line (start -7.11 -7.11) (end -7.11 -6.41) (layer F.SilkS) (width 0.12))
    (fp_line (start -6.41 -7.11) (end -7.11 -7.11) (layer F.SilkS) (width 0.12))
    (fp_line (start 7.11 -7.11) (end 7.11 -6.41) (layer F.SilkS) (width 0.12))
    (fp_line (start 6.41 -7.11) (end 7.11 -7.11) (layer F.SilkS) (width 0.12))
    (fp_line (start -7.11 7.11) (end -7.11 6.41) (layer F.SilkS) (width 0.12))
    (fp_line (start -6.41 7.11) (end -7.11 7.11) (layer F.SilkS) (width 0.12))
    (fp_line (start 7.11 7.11) (end 7.11 6.41) (layer F.SilkS) (width 0.12))
    (fp_line (start 6.41 7.11) (end 7.11 7.11) (layer F.SilkS) (width 0.12))
    (fp_text user %R (at 0 0) (layer F.Fab)
      (effects (font (size 1 1) (thickness 0.15)))
    )
    (pad 100 smd roundrect (at -6 -7.675) (size 0.3 1.6) (layers F.Cu F.Paste F.Mask) (roundrect_rratio 0.25)
      (net 61 VDD))
    (pad 99 smd roundrect (at -5.5 -7.675) (size 0.3 1.6) (layers F.Cu F.Paste F.Mask) (roundrect_rratio 0.25)
      (net 1 "Net-(U1-Pad99)"))
    (pad 98 smd roundrect (at -5 -7.675) (size 0.3 1.6) (layers F.Cu F.Paste F.Mask) (roundrect_rratio 0.25)
      (net 2 "Net-(U1-Pad98)"))
    (pad 97 smd roundrect (at -4.5 -7.675) (size 0.3 1.6) (layers F.Cu F.Paste F.Mask) (roundrect_rratio 0.25)
      (net 3 "Net-(U1-Pad97)"))
    (pad 96 smd roundrect (at -4 -7.675) (size 0.3 1.6) (layers F.Cu F.Paste F.Mask) (roundrect_rratio 0.25)
      (net 62 I2C1_SDA))
    (pad 95 smd roundrect (at -3.5 -7.675) (size 0.3 1.6) (layers F.Cu F.Paste F.Mask) (roundrect_rratio 0.25)
      (net 4 "Net-(U1-Pad95)"))
    (pad 94 smd roundrect (at -3 -7.675) (size 0.3 1.6) (layers F.Cu F.Paste F.Mask) (roundrect_rratio 0.25)
      (net 63 BOOT0))
    (pad 93 smd roundrect (at -2.5 -7.675) (size 0.3 1.6) (layers F.Cu F.Paste F.Mask) (roundrect_rratio 0.25)
      (net 5 USART1_RX))
    (pad 92 smd roundrect (at -2 -7.675) (size 0.3 1.6) (layers F.Cu F.Paste F.Mask) (roundrect_rratio 0.25)
      (net 64 I2C1_SCL))
    (pad 91 smd roundrect (at -1.5 -7.675) (size 0.3 1.6) (layers F.Cu F.Paste F.Mask) (roundrect_rratio 0.25)
      (net 65 CAN2_RX))
    (pad 90 smd roundrect (at -1 -7.675) (size 0.3 1.6) (layers F.Cu F.Paste F.Mask) (roundrect_rratio 0.25)
      (net 66 SYS_JTRST))
    (pad 89 smd roundrect (at -0.5 -7.675) (size 0.3 1.6) (layers F.Cu F.Paste F.Mask) (roundrect_rratio 0.25)
      (net 67 SYS_JTDO_SWO))
    (pad 88 smd roundrect (at 0 -7.675) (size 0.3 1.6) (layers F.Cu F.Paste F.Mask) (roundrect_rratio 0.25)
      (net 6 "Net-(U1-Pad88)"))
    (pad 87 smd roundrect (at 0.5 -7.675) (size 0.3 1.6) (layers F.Cu F.Paste F.Mask) (roundrect_rratio 0.25)
      (net 7 "Net-(U1-Pad87)"))
    (pad 86 smd roundrect (at 1 -7.675) (size 0.3 1.6) (layers F.Cu F.Paste F.Mask) (roundrect_rratio 0.25)
      (net 8 "Net-(U1-Pad86)"))
    (pad 85 smd roundrect (at 1.5 -7.675) (size 0.3 1.6) (layers F.Cu F.Paste F.Mask) (roundrect_rratio 0.25)
      (net 9 "Net-(U1-Pad85)"))
    (pad 84 smd roundrect (at 2 -7.675) (size 0.3 1.6) (layers F.Cu F.Paste F.Mask) (roundrect_rratio 0.25)
      (net 68 USART3_TX))
    (pad 83 smd roundrect (at 2.5 -7.675) (size 0.3 1.6) (layers F.Cu F.Paste F.Mask) (roundrect_rratio 0.25)
      (net 10 "Net-(U1-Pad83)"))
    (pad 82 smd roundrect (at 3 -7.675) (size 0.3 1.6) (layers F.Cu F.Paste F.Mask) (roundrect_rratio 0.25)
      (net 69 CAN1_TX))
    (pad 81 smd roundrect (at 3.5 -7.675) (size 0.3 1.6) (layers F.Cu F.Paste F.Mask) (roundrect_rratio 0.25)
      (net 70 CAN1_RX))
    (pad 80 smd roundrect (at 4 -7.675) (size 0.3 1.6) (layers F.Cu F.Paste F.Mask) (roundrect_rratio 0.25)
      (net 71 SPI3_MOSI))
    (pad 79 smd roundrect (at 4.5 -7.675) (size 0.3 1.6) (layers F.Cu F.Paste F.Mask) (roundrect_rratio 0.25)
      (net 72 SPI3_MISO))
    (pad 78 smd roundrect (at 5 -7.675) (size 0.3 1.6) (layers F.Cu F.Paste F.Mask) (roundrect_rratio 0.25)
      (net 73 SPI3_SCK))
    (pad 77 smd roundrect (at 5.5 -7.675) (size 0.3 1.6) (layers F.Cu F.Paste F.Mask) (roundrect_rratio 0.25)
      (net 74 SYS_JTDI))
    (pad 76 smd roundrect (at 6 -7.675) (size 0.3 1.6) (layers F.Cu F.Paste F.Mask) (roundrect_rratio 0.25)
      (net 75 SYS_JTCK-SWCLK))
    (pad 75 smd roundrect (at 7.675 -6) (size 1.6 0.3) (layers F.Cu F.Paste F.Mask) (roundrect_rratio 0.25)
      (net 61 VDD))
    (pad 74 smd roundrect (at 7.675 -5.5) (size 1.6 0.3) (layers F.Cu F.Paste F.Mask) (roundrect_rratio 0.25)
      (net 76 GND))
    (pad 73 smd roundrect (at 7.675 -5) (size 1.6 0.3) (layers F.Cu F.Paste F.Mask) (roundrect_rratio 0.25)
      (net 11 "Net-(U1-Pad73)"))
    (pad 72 smd roundrect (at 7.675 -4.5) (size 1.6 0.3) (layers F.Cu F.Paste F.Mask) (roundrect_rratio 0.25)
      (net 77 SYS_JTMS-SWDIO))
    (pad 71 smd roundrect (at 7.675 -4) (size 1.6 0.3) (layers F.Cu F.Paste F.Mask) (roundrect_rratio 0.25)
      (net 12 USB_FS_D+))
    (pad 70 smd roundrect (at 7.675 -3.5) (size 1.6 0.3) (layers F.Cu F.Paste F.Mask) (roundrect_rratio 0.25)
      (net 13 USB_FS_D-))
    (pad 69 smd roundrect (at 7.675 -3) (size 1.6 0.3) (layers F.Cu F.Paste F.Mask) (roundrect_rratio 0.25)
      (net 14 USB_FS_ID))
    (pad 68 smd roundrect (at 7.675 -2.5) (size 1.6 0.3) (layers F.Cu F.Paste F.Mask) (roundrect_rratio 0.25)
      (net 15 USART1_TX))
    (pad 67 smd roundrect (at 7.675 -2) (size 1.6 0.3) (layers F.Cu F.Paste F.Mask) (roundrect_rratio 0.25)
      (net 78 I2C3_SCL))
    (pad 66 smd roundrect (at 7.675 -1.5) (size 1.6 0.3) (layers F.Cu F.Paste F.Mask) (roundrect_rratio 0.25)
      (net 79 I2C3_SDA))
    (pad 65 smd roundrect (at 7.675 -1) (size 1.6 0.3) (layers F.Cu F.Paste F.Mask) (roundrect_rratio 0.25)
      (net 16 "Net-(U1-Pad65)"))
    (pad 64 smd roundrect (at 7.675 -0.5) (size 1.6 0.3) (layers F.Cu F.Paste F.Mask) (roundrect_rratio 0.25)
      (net 17 "Net-(U1-Pad64)"))
    (pad 63 smd roundrect (at 7.675 0) (size 1.6 0.3) (layers F.Cu F.Paste F.Mask) (roundrect_rratio 0.25)
      (net 18 "Net-(U1-Pad63)"))
    (pad 62 smd roundrect (at 7.675 0.5) (size 1.6 0.3) (layers F.Cu F.Paste F.Mask) (roundrect_rratio 0.25)
      (net 19 "Net-(U1-Pad62)"))
    (pad 61 smd roundrect (at 7.675 1) (size 1.6 0.3) (layers F.Cu F.Paste F.Mask) (roundrect_rratio 0.25)
      (net 20 "Net-(U1-Pad61)"))
    (pad 60 smd roundrect (at 7.675 1.5) (size 1.6 0.3) (layers F.Cu F.Paste F.Mask) (roundrect_rratio 0.25)
      (net 21 "Net-(U1-Pad60)"))
    (pad 59 smd roundrect (at 7.675 2) (size 1.6 0.3) (layers F.Cu F.Paste F.Mask) (roundrect_rratio 0.25)
      (net 22 "Net-(U1-Pad59)"))
    (pad 58 smd roundrect (at 7.675 2.5) (size 1.6 0.3) (layers F.Cu F.Paste F.Mask) (roundrect_rratio 0.25)
      (net 23 "Net-(U1-Pad58)"))
    (pad 57 smd roundrect (at 7.675 3) (size 1.6 0.3) (layers F.Cu F.Paste F.Mask) (roundrect_rratio 0.25)
      (net 24 "Net-(U1-Pad57)"))
    (pad 56 smd roundrect (at 7.675 3.5) (size 1.6 0.3) (layers F.Cu F.Paste F.Mask) (roundrect_rratio 0.25)
      (net 25 "Net-(U1-Pad56)"))
    (pad 55 smd roundrect (at 7.675 4) (size 1.6 0.3) (layers F.Cu F.Paste F.Mask) (roundrect_rratio 0.25)
      (net 26 "Net-(U1-Pad55)"))
    (pad 54 smd roundrect (at 7.675 4.5) (size 1.6 0.3) (layers F.Cu F.Paste F.Mask) (roundrect_rratio 0.25)
      (net 27 USB_HS_D+))
    (pad 53 smd roundrect (at 7.675 5) (size 1.6 0.3) (layers F.Cu F.Paste F.Mask) (roundrect_rratio 0.25)
      (net 28 USB_HS_D-))
    (pad 52 smd roundrect (at 7.675 5.5) (size 1.6 0.3) (layers F.Cu F.Paste F.Mask) (roundrect_rratio 0.25)
      (net 80 CAN2_TX))
    (pad 51 smd roundrect (at 7.675 6) (size 1.6 0.3) (layers F.Cu F.Paste F.Mask) (roundrect_rratio 0.25)
      (net 29 USB_HS_ID))
    (pad 50 smd roundrect (at 6 7.675) (size 0.3 1.6) (layers F.Cu F.Paste F.Mask) (roundrect_rratio 0.25)
      (net 61 VDD))
    (pad 49 smd roundrect (at 5.5 7.675) (size 0.3 1.6) (layers F.Cu F.Paste F.Mask) (roundrect_rratio 0.25)
      (net 30 "Net-(U1-Pad49)"))
    (pad 48 smd roundrect (at 5 7.675) (size 0.3 1.6) (layers F.Cu F.Paste F.Mask) (roundrect_rratio 0.25)
      (net 81 USART3_RX))
    (pad 47 smd roundrect (at 4.5 7.675) (size 0.3 1.6) (layers F.Cu F.Paste F.Mask) (roundrect_rratio 0.25)
      (net 82 SPI2_SCK))
    (pad 46 smd roundrect (at 4 7.675) (size 0.3 1.6) (layers F.Cu F.Paste F.Mask) (roundrect_rratio 0.25)
      (net 31 "Net-(U1-Pad46)"))
    (pad 45 smd roundrect (at 3.5 7.675) (size 0.3 1.6) (layers F.Cu F.Paste F.Mask) (roundrect_rratio 0.25)
      (net 32 "Net-(U1-Pad45)"))
    (pad 44 smd roundrect (at 3 7.675) (size 0.3 1.6) (layers F.Cu F.Paste F.Mask) (roundrect_rratio 0.25)
      (net 33 "Net-(U1-Pad44)"))
    (pad 43 smd roundrect (at 2.5 7.675) (size 0.3 1.6) (layers F.Cu F.Paste F.Mask) (roundrect_rratio 0.25)
      (net 34 "Net-(U1-Pad43)"))
    (pad 42 smd roundrect (at 2 7.675) (size 0.3 1.6) (layers F.Cu F.Paste F.Mask) (roundrect_rratio 0.25)
      (net 35 "Net-(U1-Pad42)"))
    (pad 41 smd roundrect (at 1.5 7.675) (size 0.3 1.6) (layers F.Cu F.Paste F.Mask) (roundrect_rratio 0.25)
      (net 36 "Net-(U1-Pad41)"))
    (pad 40 smd roundrect (at 1 7.675) (size 0.3 1.6) (layers F.Cu F.Paste F.Mask) (roundrect_rratio 0.25)
      (net 37 "Net-(U1-Pad40)"))
    (pad 39 smd roundrect (at 0.5 7.675) (size 0.3 1.6) (layers F.Cu F.Paste F.Mask) (roundrect_rratio 0.25)
      (net 38 "Net-(U1-Pad39)"))
    (pad 38 smd roundrect (at 0 7.675) (size 0.3 1.6) (layers F.Cu F.Paste F.Mask) (roundrect_rratio 0.25)
      (net 39 "Net-(U1-Pad38)"))
    (pad 37 smd roundrect (at -0.5 7.675) (size 0.3 1.6) (layers F.Cu F.Paste F.Mask) (roundrect_rratio 0.25)
      (net 40 "Net-(U1-Pad37)"))
    (pad 36 smd roundrect (at -1 7.675) (size 0.3 1.6) (layers F.Cu F.Paste F.Mask) (roundrect_rratio 0.25)
      (net 41 "Net-(U1-Pad36)"))
    (pad 35 smd roundrect (at -1.5 7.675) (size 0.3 1.6) (layers F.Cu F.Paste F.Mask) (roundrect_rratio 0.25)
      (net 42 "Net-(U1-Pad35)"))
    (pad 34 smd roundrect (at -2 7.675) (size 0.3 1.6) (layers F.Cu F.Paste F.Mask) (roundrect_rratio 0.25)
      (net 43 "Net-(U1-Pad34)"))
    (pad 33 smd roundrect (at -2.5 7.675) (size 0.3 1.6) (layers F.Cu F.Paste F.Mask) (roundrect_rratio 0.25)
      (net 44 "Net-(U1-Pad33)"))
    (pad 32 smd roundrect (at -3 7.675) (size 0.3 1.6) (layers F.Cu F.Paste F.Mask) (roundrect_rratio 0.25)
      (net 83 SPI1_MOSI))
    (pad 31 smd roundrect (at -3.5 7.675) (size 0.3 1.6) (layers F.Cu F.Paste F.Mask) (roundrect_rratio 0.25)
      (net 84 SPI1_MISO))
    (pad 30 smd roundrect (at -4 7.675) (size 0.3 1.6) (layers F.Cu F.Paste F.Mask) (roundrect_rratio 0.25)
      (net 85 SPI1_SCK))
    (pad 29 smd roundrect (at -4.5 7.675) (size 0.3 1.6) (layers F.Cu F.Paste F.Mask) (roundrect_rratio 0.25)
      (net 86 SPI1_NSS))
    (pad 28 smd roundrect (at -5 7.675) (size 0.3 1.6) (layers F.Cu F.Paste F.Mask) (roundrect_rratio 0.25)
      (net 61 VDD))
    (pad 27 smd roundrect (at -5.5 7.675) (size 0.3 1.6) (layers F.Cu F.Paste F.Mask) (roundrect_rratio 0.25)
      (net 76 GND))
    (pad 26 smd roundrect (at -6 7.675) (size 0.3 1.6) (layers F.Cu F.Paste F.Mask) (roundrect_rratio 0.25)
      (net 87 USART2_RX))
    (pad 25 smd roundrect (at -7.675 6) (size 1.6 0.3) (layers F.Cu F.Paste F.Mask) (roundrect_rratio 0.25)
      (net 88 USART2_TX))
    (pad 24 smd roundrect (at -7.675 5.5) (size 1.6 0.3) (layers F.Cu F.Paste F.Mask) (roundrect_rratio 0.25)
      (net 89 ADC1_IN1))
    (pad 23 smd roundrect (at -7.675 5) (size 1.6 0.3) (layers F.Cu F.Paste F.Mask) (roundrect_rratio 0.25)
      (net 90 ADC1_IN0))
    (pad 22 smd roundrect (at -7.675 4.5) (size 1.6 0.3) (layers F.Cu F.Paste F.Mask) (roundrect_rratio 0.25)
      (net 45 "Net-(U1-Pad22)"))
    (pad 21 smd roundrect (at -7.675 4) (size 1.6 0.3) (layers F.Cu F.Paste F.Mask) (roundrect_rratio 0.25)
      (net 46 "Net-(U1-Pad21)"))
    (pad 20 smd roundrect (at -7.675 3.5) (size 1.6 0.3) (layers F.Cu F.Paste F.Mask) (roundrect_rratio 0.25)
      (net 47 "Net-(U1-Pad20)"))
    (pad 19 smd roundrect (at -7.675 3) (size 1.6 0.3) (layers F.Cu F.Paste F.Mask) (roundrect_rratio 0.25)
      (net 61 VDD))
    (pad 18 smd roundrect (at -7.675 2.5) (size 1.6 0.3) (layers F.Cu F.Paste F.Mask) (roundrect_rratio 0.25)
      (net 91 SPI2_MOSI))
    (pad 17 smd roundrect (at -7.675 2) (size 1.6 0.3) (layers F.Cu F.Paste F.Mask) (roundrect_rratio 0.25)
      (net 92 SPI2_MISO))
    (pad 16 smd roundrect (at -7.675 1.5) (size 1.6 0.3) (layers F.Cu F.Paste F.Mask) (roundrect_rratio 0.25)
      (net 48 "Net-(U1-Pad16)"))
    (pad 15 smd roundrect (at -7.675 1) (size 1.6 0.3) (layers F.Cu F.Paste F.Mask) (roundrect_rratio 0.25)
      (net 49 "Net-(U1-Pad15)"))
    (pad 14 smd roundrect (at -7.675 0.5) (size 1.6 0.3) (layers F.Cu F.Paste F.Mask) (roundrect_rratio 0.25)
      (net 93 NRST))
    (pad 13 smd roundrect (at -7.675 0) (size 1.6 0.3) (layers F.Cu F.Paste F.Mask) (roundrect_rratio 0.25)
      (net 50 RCC_OSC_OUT))
    (pad 12 smd roundrect (at -7.675 -0.5) (size 1.6 0.3) (layers F.Cu F.Paste F.Mask) (roundrect_rratio 0.25)
      (net 51 RCC_OSC_IN))
    (pad 11 smd roundrect (at -7.675 -1) (size 1.6 0.3) (layers F.Cu F.Paste F.Mask) (roundrect_rratio 0.25)
      (net 61 VDD))
    (pad 10 smd roundrect (at -7.675 -1.5) (size 1.6 0.3) (layers F.Cu F.Paste F.Mask) (roundrect_rratio 0.25)
      (net 76 GND))
    (pad 9 smd roundrect (at -7.675 -2) (size 1.6 0.3) (layers F.Cu F.Paste F.Mask) (roundrect_rratio 0.25)
      (net 52 "Net-(U1-Pad9)"))
    (pad 8 smd roundrect (at -7.675 -2.5) (size 1.6 0.3) (layers F.Cu F.Paste F.Mask) (roundrect_rratio 0.25)
      (net 53 "Net-(U1-Pad8)"))
    (pad 7 smd roundrect (at -7.675 -3) (size 1.6 0.3) (layers F.Cu F.Paste F.Mask) (roundrect_rratio 0.25)
      (net 54 "Net-(U1-Pad7)"))
    (pad 6 smd roundrect (at -7.675 -3.5) (size 1.6 0.3) (layers F.Cu F.Paste F.Mask) (roundrect_rratio 0.25)
      (net 55 "Net-(U1-Pad6)"))
    (pad 5 smd roundrect (at -7.675 -4) (size 1.6 0.3) (layers F.Cu F.Paste F.Mask) (roundrect_rratio 0.25)
      (net 56 "Net-(U1-Pad5)"))
    (pad 4 smd roundrect (at -7.675 -4.5) (size 1.6 0.3) (layers F.Cu F.Paste F.Mask) (roundrect_rratio 0.25)
      (net 57 "Net-(U1-Pad4)"))
    (pad 3 smd roundrect (at -7.675 -5) (size 1.6 0.3) (layers F.Cu F.Paste F.Mask) (roundrect_rratio 0.25)
      (net 58 "Net-(U1-Pad3)"))
    (pad 2 smd roundrect (at -7.675 -5.5) (size 1.6 0.3) (layers F.Cu F.Paste F.Mask) (roundrect_rratio 0.25)
      (net 59 "Net-(U1-Pad2)"))
    (pad 1 smd roundrect (at -7.675 -6) (size 1.6 0.3) (layers F.Cu F.Paste F.Mask) (roundrect_rratio 0.25)
      (net 60 "Net-(U1-Pad1)"))
    (model ${KISYS3DMOD}/Package_QFP.3dshapes/LQFP-100_14x14mm_P0.5mm.wrl
      (at (xyz 0 0 0))
      (scale (xyz 1 1 1))
      (rotate (xyz 0 0 0))
    )
  )

)
